%YAML 1.1
%TAG !u! tag:unity3d.com,2011:
--- !u!114 &11400000
MonoBehaviour:
  m_ObjectHideFlags: 0
  m_CorrespondingSourceObject: {fileID: 0}
  m_PrefabInstance: {fileID: 0}
  m_PrefabAsset: {fileID: 0}
  m_GameObject: {fileID: 0}
  m_Enabled: 1
  m_EditorHideFlags: 0
  m_Script: {fileID: 11500000, guid: 5c0dd233c0ba48408d49fa708d6d1756, type: 3}
  m_Name: OnLanding
  m_EditorClassIdentifier: 
  serializationData:
    SerializedFormat: 2
    SerializedBytes: 
    ReferencedUnityObjects: []
    SerializedBytesString: 
    Prefab: {fileID: 0}
    PrefabModificationsReferencedUnityObjects: []
    PrefabModifications: []
    SerializationNodes:
    - Name: _editorCallbacks
      Entry: 7
      Data: 0|System.Collections.Generic.List`1[[System.Action`1[[ShivaCode.Void,
        ShivaCode]], mscorlib]], mscorlib
    - Name: 
      Entry: 12
      Data: 0
    - Name: 
      Entry: 13
      Data: 
    - Name: 
      Entry: 8
      Data: 
    - Name: _eventListeners
      Entry: 7
      Data: 1|ShivaCode.Events.ListenerChain`1[[ShivaCode.Void, ShivaCode]], ShivaCode
    - Name: _eventListeners
      Entry: 7
      Data: 2|System.Collections.Generic.List`1[[ShivaCode.Events.IGameEventListener`1[[ShivaCode.Void,
        ShivaCode]], ShivaCode]], mscorlib
    - Name: 
      Entry: 12
      Data: 0
    - Name: 
      Entry: 13
      Data: 
    - Name: 
      Entry: 8
      Data: 
    - Name: _eventCallbacks
      Entry: 7
      Data: 3|System.Collections.Generic.List`1[[System.Action`1[[ShivaCode.Void,
        ShivaCode]], mscorlib]], mscorlib
    - Name: 
      Entry: 12
      Data: 0
    - Name: 
      Entry: 13
      Data: 
    - Name: 
      Entry: 8
      Data: 
    - Name: 
      Entry: 8
      Data: 
  _reminders: 
  ShivaLogLevel: 2
