%YAML 1.1
%TAG !u! tag:unity3d.com,2011:
--- !u!114 &11400000
MonoBehaviour:
  m_ObjectHideFlags: 0
  m_CorrespondingSourceObject: {fileID: 0}
  m_PrefabInstance: {fileID: 0}
  m_PrefabAsset: {fileID: 0}
  m_GameObject: {fileID: 0}
  m_Enabled: 1
  m_EditorHideFlags: 0
  m_Script: {fileID: -1893448595, guid: a040fb66244a7f54289914d98ea4ef7d, type: 3}
  m_Name: InitializeSceneDictionary
  m_EditorClassIdentifier: 
  _data:
    _json: '{"graph":{"variables":{"collection":{"$content":[],"$version":"A"},"$version":"A"},"controlInputDefinitions":[{"key":"i","label":null,"summary":null,"hideLabel":true}],"controlOutputDefinitions":[{"key":"o","label":null,"summary":null,"hideLabel":true}],"valueInputDefinitions":[{"hasDefaultValue":true,"defaultValue":null,"_type":"System.String","key":"Name","label":null,"summary":null,"hideLabel":false}],"valueOutputDefinitions":[{"_type":"Ludiq.AotDictionary","key":"v","label":null,"summary":null,"hideLabel":true}],"title":null,"summary":null,"pan":{"x":83.0,"y":117.0},"zoom":1.0,"elements":[{"chainable":false,"member":{"name":".ctor","parameterTypes":[],"targetType":"Ludiq.AotDictionary","targetTypeName":"Ludiq.AotDictionary","$version":"A"},"defaultValues":{},"position":{"x":-298.0,"y":-93.0},"guid":"da07c337-ec28-46ed-8dc7-bad217c1fb93","$version":"A","$type":"Bolt.InvokeMember","$id":"13"},{"defaultValues":{},"position":{"x":-426.0,"y":-25.0},"guid":"d0efe953-d221-45c6-8b68-46af2423d162","$version":"A","$type":"Bolt.GraphInput","$id":"16"},{"defaultValues":{},"position":{"x":172.0,"y":70.0},"guid":"471903dc-7436-4e5c-9a60-074eed51940b","$version":"A","$type":"Bolt.GraphOutput","$id":"18"},{"nest":{"source":"Macro","macro":0,"embed":null},"defaultValues":{"Name":null},"position":{"x":-122.0,"y":-22.0},"guid":"b61e9564-adf3-4739-8be1-fcc02db724f2","$version":"A","$type":"Bolt.SuperUnit","$id":"20"},{"sourceUnit":{"$ref":"16"},"sourceKey":"i","destinationUnit":{"$ref":"13"},"destinationKey":"enter","guid":"a4b04442-33b8-403b-8f29-2bc054d1b605","$type":"Bolt.ControlConnection"},{"sourceUnit":{"$ref":"13"},"sourceKey":"exit","destinationUnit":{"$ref":"20"},"destinationKey":"i","guid":"b02207d8-34b0-4d2d-9a94-7b0540562759","$type":"Bolt.ControlConnection"},{"sourceUnit":{"$ref":"20"},"sourceKey":"o","destinationUnit":{"$ref":"18"},"destinationKey":"o","guid":"044d2ff6-51b5-41cf-8e2a-9770cd109a37","$type":"Bolt.ControlConnection"},{"sourceUnit":{"$ref":"20"},"sourceKey":"Value","destinationUnit":{"$ref":"18"},"destinationKey":"v","guid":"2d8705ad-3af2-4f69-af55-3c013b243480","$type":"Bolt.ValueConnection"},{"sourceUnit":{"$ref":"13"},"sourceKey":"result","destinationUnit":{"$ref":"20"},"destinationKey":"Default","guid":"42fc9afe-05ab-47d1-a571-6badd2402fc0","$type":"Bolt.ValueConnection"},{"sourceUnit":{"$ref":"16"},"sourceKey":"Name","destinationUnit":{"$ref":"20"},"destinationKey":"Name","guid":"e0af06e6-eac3-4ab9-9d82-e317bcb5bcab","$type":"Bolt.ValueConnection"}],"$version":"A"}}'
    _objectReferences:
    - {fileID: 11400000, guid: d6aa0f5e885be8d43bb102b0db7b6e30, type: 2}
