%YAML 1.1
%TAG !u! tag:unity3d.com,2011:
--- !u!114 &11400000
MonoBehaviour:
  m_ObjectHideFlags: 0
  m_CorrespondingSourceObject: {fileID: 0}
  m_PrefabInstance: {fileID: 0}
  m_PrefabAsset: {fileID: 0}
  m_GameObject: {fileID: 0}
  m_Enabled: 1
  m_EditorHideFlags: 0
  m_Script: {fileID: 11500000, guid: 5d0199c11aa6f514784c5c69cd8378d8, type: 3}
  m_Name: PlayFabEditorPrefsSO
  m_EditorClassIdentifier: 
  DevAccountEmail: budsofbuds@gmail.com
  DevAccountToken: hgonxuob1r4yx1zc1d7bh77uzk39wz9kufwpj4tn1n6dsw1pepgfsyqodh76xbqgj6ju5bjm6e6em8er9duqf1jkhebb9bzkd14xd6eur9pmm3ttmsprpq5399bwhkgng9m1uuhynqfqd3otc4u6j37c6ax518zsain1gpspqw483xyox1rmkm8agiub4ehpnnzfjr8o
  SelectedStudio: Augle
  SdkPath: Assets/PlayFabSDK
  EdExPath: 
  LocalCloudScriptPath: C:/Users/sinji/Documents/BudsProjects/Augle Prism git/cloudscript/cloudscript.js
  PanelIsShown: 0
  curMainMenuIdx: 1
  curSubMenuIdx: 0
