{
    "name": "ShivaCodeEditor",
    "references": [
        "Unity.Addressables.Editor",
        "Unity.Addressables",
        "ShivaCode",
        "Analytics"
    ],
    "includePlatforms": [
        "Editor"
    ],
    "excludePlatforms": [],
    "allowUnsafeCode": false,
    "overrideReferences": true,
    "precompiledReferences": [
        "Bolt.Core.Editor.dll",
        "Bolt.Flow.Editor.dll",
        "Bolt.State.Editor.dll",
        "Antlr3.Runtime.dll",
        "Ludiq.Core.Editor.dll",
        "Ludiq.Graphs.Editor.dll",
        "Sirenix.OdinInspector.Editor.dll",
        "Sirenix.Serialization.dll",
        "Sirenix.Utilities.dll",
        "Sirenix.OdinInspector.Attributes.dll",
        "Sirenix.Serialization.Config.dll",
        "Sirenix.Serialization.AOTGenerated.dll"
    ],
    "autoReferenced": true,
    "defineConstraints": [],
    "versionDefines": [],
    "noEngineReferences": false
}