%YAML 1.1
%TAG !u! tag:unity3d.com,2011:
--- !u!114 &11400000
MonoBehaviour:
  m_ObjectHideFlags: 0
  m_CorrespondingSourceObject: {fileID: 0}
  m_PrefabInstance: {fileID: 0}
  m_PrefabAsset: {fileID: 0}
  m_GameObject: {fileID: 0}
  m_Enabled: 1
  m_EditorHideFlags: 0
  m_Script: {fileID: -1893448595, guid: a040fb66244a7f54289914d98ea4ef7d, type: 3}
  m_Name: GUIDSingleEvent
  m_EditorClassIdentifier: 
  _data:
    _json: '{"graph":{"variables":{"collection":{"$content":[],"$version":"A"},"$version":"A"},"controlInputDefinitions":[{"key":"i","label":null,"summary":null,"hideLabel":true}],"controlOutputDefinitions":[{"key":"o","label":null,"summary":null,"hideLabel":true},{"key":"Trigger","label":null,"summary":null,"hideLabel":false}],"valueInputDefinitions":[{"hasDefaultValue":true,"defaultValue":null,"_type":"System.String","key":"Event
      Name","label":null,"summary":null,"hideLabel":false}],"valueOutputDefinitions":[{"_type":"ShivaCode.Events.GUIDEventObject","key":"GUIDEventObject","label":null,"summary":null,"hideLabel":false},{"_type":"System.Object","key":"Responce","label":null,"summary":null,"hideLabel":false}],"title":null,"summary":null,"pan":{"x":211.9107,"y":-58.39286},"zoom":0.8,"elements":[{"nest":{"source":"Macro","macro":0,"embed":null},"defaultValues":{"eventName":null},"position":{"x":-220.0,"y":-31.0},"guid":"b728541b-a5e6-4ca3-92f6-b66a428a4574","$version":"A","$type":"Bolt.SuperUnit","$id":"15"},{"nest":{"source":"Macro","macro":1,"embed":null},"defaultValues":{"Coroutine":{"$content":true,"$type":"System.Boolean"}},"position":{"x":136.0,"y":24.0},"guid":"56bfff95-2fb8-49a0-b1ab-8883ad385101","$version":"A","$type":"Bolt.SuperUnit","$id":"18"},{"defaultValues":{},"position":{"x":-357.0,"y":-205.0},"guid":"238f303a-6d39-4bc4-a3e1-863d5c139285","$version":"A","$type":"Bolt.GraphInput","$id":"21"},{"defaultValues":{},"position":{"x":444.0,"y":-216.0},"guid":"2d5414a5-cd1b-4253-baad-136ebf91df98","$version":"A","$type":"Bolt.GraphOutput","$id":"23"},{"sourceUnit":{"$ref":"18"},"sourceKey":"Flow","destinationUnit":{"$ref":"23"},"destinationKey":"Trigger","guid":"1fe2d3da-54b1-4473-ad69-cb5bfb65bec2","$type":"Bolt.ControlConnection"},{"sourceUnit":{"$ref":"21"},"sourceKey":"i","destinationUnit":{"$ref":"15"},"destinationKey":"i","guid":"f977ccd2-bfac-4a57-ac95-8ba20a2771d6","$type":"Bolt.ControlConnection"},{"sourceUnit":{"$ref":"15"},"sourceKey":"o","destinationUnit":{"$ref":"18"},"destinationKey":"i","guid":"ab7e9bbe-2463-42f3-82f4-dd88c1535b31","$type":"Bolt.ControlConnection"},{"sourceUnit":{"$ref":"18"},"sourceKey":"Setup
      Complete","destinationUnit":{"$ref":"23"},"destinationKey":"o","guid":"a2a44485-986b-4ca6-8ed2-07bca079f0f8","$type":"Bolt.ControlConnection"},{"sourceUnit":{"$ref":"15"},"sourceKey":"ResponceName","destinationUnit":{"$ref":"18"},"destinationKey":"Event","guid":"6347cb44-28c9-45b4-931e-405166c72fd4","$type":"Bolt.ValueConnection"},{"sourceUnit":{"$ref":"15"},"sourceKey":"GUID
      Event Object","destinationUnit":{"$ref":"23"},"destinationKey":"GUIDEventObject","guid":"67f36e05-339f-4aff-85e0-6be9f414d5b4","$type":"Bolt.ValueConnection"},{"sourceUnit":{"$ref":"18"},"sourceKey":"Result","destinationUnit":{"$ref":"23"},"destinationKey":"Responce","guid":"df86c445-e65b-4b9f-937d-96c57c57eeed","$type":"Bolt.ValueConnection"},{"sourceUnit":{"$ref":"21"},"sourceKey":"Event
      Name","destinationUnit":{"$ref":"15"},"destinationKey":"eventName","guid":"0e4d52bf-e146-453b-95cc-ab89cd400515","$type":"Bolt.ValueConnection"}],"$version":"A"}}'
    _objectReferences:
    - {fileID: 11400000, guid: e3c076a037e9b92438a956f259efc86e, type: 2}
    - {fileID: 11400000, guid: a52e403df98377a448de87e4db824495, type: 2}
