%YAML 1.1
%TAG !u! tag:unity3d.com,2011:
--- !u!114 &11400000
MonoBehaviour:
  m_ObjectHideFlags: 0
  m_CorrespondingSourceObject: {fileID: 0}
  m_PrefabInstance: {fileID: 0}
  m_PrefabAsset: {fileID: 0}
  m_GameObject: {fileID: 0}
  m_Enabled: 1
  m_EditorHideFlags: 0
  m_Script: {fileID: -1893448595, guid: a040fb66244a7f54289914d98ea4ef7d, type: 3}
  m_Name: GUIDSingleMerged
  m_EditorClassIdentifier: 
  _data:
    _json: '{"graph":{"variables":{"collection":{"$content":[],"$version":"A"},"$version":"A"},"controlInputDefinitions":[{"key":"i","label":null,"summary":null,"hideLabel":true}],"controlOutputDefinitions":[{"key":"o","label":null,"summary":null,"hideLabel":true},{"key":"Return","label":null,"summary":null,"hideLabel":false}],"valueInputDefinitions":[{"hasDefaultValue":true,"defaultValue":null,"_type":"System.String","key":"Event
      Name","label":null,"summary":null,"hideLabel":false}],"valueOutputDefinitions":[{"_type":"ShivaCode.Events.GUIDEventObject","key":"GUID
      Object","label":null,"summary":null,"hideLabel":false},{"_type":"System.Object","key":"Result","label":null,"summary":null,"hideLabel":false}],"title":null,"summary":null,"pan":{"x":152.0,"y":-85.0},"zoom":1.0,"elements":[{"nest":{"source":"Macro","macro":0,"embed":null},"defaultValues":{"eventName":{"$content":"Bundle
      Return","$type":"System.String"}},"position":{"x":-353.0,"y":-229.0},"guid":"0e7989ee-c6ab-4951-871b-68fc29869967","$version":"A","$type":"Bolt.SuperUnit","$id":"15"},{"nest":{"source":"Macro","macro":1,"embed":null},"defaultValues":{"Coroutine":{"$content":true,"$type":"System.Boolean"}},"position":{"x":68.0,"y":-117.0},"guid":"e879b670-fad5-457a-862d-0c38378d1ba8","$version":"A","$type":"Bolt.SuperUnit","$id":"18"},{"defaultValues":{},"position":{"x":-509.0,"y":-260.0},"guid":"1c892f62-d167-4f08-8d71-0fdf3aba4e11","$version":"A","$type":"Bolt.GraphInput","$id":"21"},{"defaultValues":{},"position":{"x":351.0,"y":-266.0},"guid":"55e19f50-6ee7-45a8-a3e5-b6eec8df404e","$version":"A","$type":"Bolt.GraphOutput","$id":"23"},{"sourceUnit":{"$ref":"21"},"sourceKey":"i","destinationUnit":{"$ref":"15"},"destinationKey":"i","guid":"e08487f0-a262-4a47-8931-dd97cfeeb961","$type":"Bolt.ControlConnection"},{"sourceUnit":{"$ref":"18"},"sourceKey":"Flow","destinationUnit":{"$ref":"23"},"destinationKey":"Return","guid":"57a24e3d-9b0e-41ad-9fa1-48208cf081d0","$type":"Bolt.ControlConnection"},{"sourceUnit":{"$ref":"15"},"sourceKey":"o","destinationUnit":{"$ref":"18"},"destinationKey":"i","guid":"c1fd89e9-1747-4ab9-a41a-4b1a1174b4bc","$type":"Bolt.ControlConnection"},{"sourceUnit":{"$ref":"18"},"sourceKey":"Setup
      Complete","destinationUnit":{"$ref":"23"},"destinationKey":"o","guid":"f09877fd-a7aa-4abf-b206-b46d9f0b01e3","$type":"Bolt.ControlConnection"},{"sourceUnit":{"$ref":"21"},"sourceKey":"Event
      Name","destinationUnit":{"$ref":"15"},"destinationKey":"eventName","guid":"dfb19e0e-b1ae-4d3d-8324-4d66dafa8421","$type":"Bolt.ValueConnection"},{"sourceUnit":{"$ref":"15"},"sourceKey":"GUID
      Event Object","destinationUnit":{"$ref":"23"},"destinationKey":"GUID Object","guid":"85541446-d2ee-407a-bb50-fc7d2d51e366","$type":"Bolt.ValueConnection"},{"sourceUnit":{"$ref":"15"},"sourceKey":"ResponceName","destinationUnit":{"$ref":"18"},"destinationKey":"Event","guid":"0856d0ee-334f-40ce-9629-0ea36493dd3e","$type":"Bolt.ValueConnection"},{"sourceUnit":{"$ref":"18"},"sourceKey":"Result","destinationUnit":{"$ref":"23"},"destinationKey":"Result","guid":"ca4cd721-2188-4fbd-aeea-ad88ec7ded74","$type":"Bolt.ValueConnection"}],"$version":"A"}}'
    _objectReferences:
    - {fileID: 11400000, guid: e3c076a037e9b92438a956f259efc86e, type: 2}
    - {fileID: 11400000, guid: a52e403df98377a448de87e4db824495, type: 2}
