%YAML 1.1
%TAG !u! tag:unity3d.com,2011:
--- !u!114 &11400000
MonoBehaviour:
  m_ObjectHideFlags: 0
  m_CorrespondingSourceObject: {fileID: 0}
  m_PrefabInstance: {fileID: 0}
  m_PrefabAsset: {fileID: 0}
  m_GameObject: {fileID: 0}
  m_Enabled: 1
  m_EditorHideFlags: 0
  m_Script: {fileID: -1893448595, guid: a040fb66244a7f54289914d98ea4ef7d, type: 3}
  m_Name: Name Triggers
  m_EditorClassIdentifier: 
  _data:
    _json: '{"graph":{"variables":{"collection":{"$content":[],"$version":"A"},"$version":"A"},"controlInputDefinitions":[{"key":"i","label":"Setup","summary":null,"hideLabel":false}],"controlOutputDefinitions":[{"key":"Setup
      Complete","label":null,"summary":null,"hideLabel":false},{"key":"Flow 1","label":null,"summary":null,"hideLabel":false},{"key":"Flow
      2","label":null,"summary":null,"hideLabel":false},{"key":"Flow 3","label":null,"summary":null,"hideLabel":false}],"valueInputDefinitions":[{"hasDefaultValue":true,"defaultValue":null,"_type":"System.String","key":"Event
      1","label":null,"summary":null,"hideLabel":false},{"hasDefaultValue":false,"defaultValue":null,"_type":"System.String","key":"Event
      2","label":null,"summary":null,"hideLabel":false},{"hasDefaultValue":false,"defaultValue":null,"_type":"System.String","key":"Event
      3","label":null,"summary":null,"hideLabel":false}],"valueOutputDefinitions":[{"_type":"System.Object","key":"Result","label":null,"summary":null,"hideLabel":false},{"_type":"System.Object","key":"Result
      1","label":null,"summary":null,"hideLabel":false},{"_type":"System.Object","key":"Result
      2","label":null,"summary":null,"hideLabel":false},{"_type":"System.Object","key":"Result
      3","label":null,"summary":null,"hideLabel":false}],"title":null,"summary":null,"pan":{"x":670.5,"y":108.2857},"zoom":0.6999999,"elements":[{"defaultValues":{},"position":{"x":-1005.0,"y":-102.0},"guid":"dc4b145a-1f5a-4f4c-a71b-53a43128d221","$version":"A","$type":"Bolt.GraphInput","$id":"21"},{"defaultValues":{},"position":{"x":690.0,"y":-249.0},"guid":"a9f64ef9-e186-4edc-a479-847a3c073854","$version":"A","$type":"Bolt.NullCoalesce"},{"defaultValues":{},"position":{"x":-25.0,"y":10.0},"guid":"9f7715fe-ae36-41da-9025-a59c3e44e75a","$version":"A","$type":"Bolt.NullCoalesce","$id":"25"},{"defaultValues":{},"position":{"x":8.0,"y":-346.0},"guid":"f557b945-d0f0-4450-b4a6-fab1913ed8fd","$version":"A","$type":"Bolt.NullCoalesce","$id":"27"},{"defaultValues":{},"position":{"x":-1031.0,"y":-281.0},"guid":"577014b1-31b4-4daa-a116-72342eae6c02","$version":"A","$type":"Bolt.Null","$id":"29"},{"kind":"Graph","defaultValues":{"name":{"$content":"EventResult","$type":"System.String"}},"position":{"x":-833.0,"y":-320.0},"guid":"0142a887-3954-4493-b723-cd1ea31d584f","$version":"A","$type":"Bolt.SetVariable","$id":"31"},{"specifyFallback":false,"kind":"Graph","defaultValues":{"name":{"$content":"EventResult","$type":"System.String"}},"position":{"x":-236.0,"y":-576.0},"guid":"75a11700-d771-4bd1-a959-2c7265edbb10","$version":"A","$type":"Bolt.GetVariable","$id":"33"},{"nest":{"source":"Macro","macro":0,"embed":null},"defaultValues":{"Coroutine":{"$content":true,"$type":"System.Boolean"}},"position":{"x":-396.0,"y":-151.0},"guid":"4d41d62c-246d-4c72-9f2a-594b00b02da1","$version":"A","$type":"Bolt.SuperUnit","$id":"35"},{"defaultValues":{},"position":{"x":-16.0,"y":-162.0},"guid":"0b19d872-ffe5-4eb7-8edd-4f85798fa622","$version":"A","$type":"Bolt.NullCoalesce","$id":"38"},{"kind":"Graph","defaultValues":{"name":{"$content":"EventResult","$type":"System.String"}},"position":{"x":255.0,"y":-440.0},"guid":"a0c4de90-b530-43d0-9fa0-d9434eca4cbd","$version":"A","$type":"Bolt.SetVariable","$id":"40"},{"kind":"Graph","defaultValues":{"name":{"$content":"EventResult","$type":"System.String"}},"position":{"x":179.0,"y":-239.0},"guid":"08db1445-85bc-4a0c-8918-e01d6d7cb0be","$version":"A","$type":"Bolt.SetVariable","$id":"42"},{"outputCount":4,"defaultValues":{},"position":{"x":-587.0,"y":33.0},"guid":"877cbed1-57f2-44ce-b49c-47c650f25f98","$version":"A","$type":"Bolt.Sequence","$id":"44"},{"defaultValues":{},"position":{"x":445.0,"y":110.0},"guid":"00e6bb60-7671-489d-97bd-d4d891b1a2bf","$version":"A","$type":"Bolt.GraphOutput","$id":"46"},{"nest":{"source":"Macro","macro":1,"embed":null},"defaultValues":{"Coroutine":{"$content":true,"$type":"System.Boolean"}},"position":{"x":-390.0,"y":-437.0},"guid":"ccdb618e-7a9f-45a8-b6bc-78ba0e25a4fd","$version":"A","$type":"Bolt.SuperUnit","$id":"48"},{"specifyFallback":false,"kind":"Graph","defaultValues":{"name":{"$content":"EventResult","$type":"System.String"}},"position":{"x":148.0,"y":267.0},"guid":"efca3f0c-c4d6-475c-a278-1ab00ed904f2","$version":"A","$type":"Bolt.GetVariable","$id":"51"},{"kind":"Graph","defaultValues":{"name":{"$content":"EventResult","$type":"System.String"}},"position":{"x":203.0,"y":-65.0},"guid":"ef9105b4-5835-4890-b333-7d9e34e5bbae","$version":"A","$type":"Bolt.SetVariable","$id":"53"},{"nest":{"source":"Macro","macro":2,"embed":null},"defaultValues":{"Coroutine":{"$content":true,"$type":"System.Boolean"}},"position":{"x":-388.0,"y":-289.0},"guid":"55eadd2d-03cc-4a90-9788-86e66e827bc4","$version":"A","$type":"Bolt.SuperUnit","$id":"55"},{"sourceUnit":{"$ref":"21"},"sourceKey":"i","destinationUnit":{"$ref":"31"},"destinationKey":"assign","guid":"9bc126c9-9ab9-4a5c-a881-6d8e0117663d","$type":"Bolt.ControlConnection"},{"sourceUnit":{"$ref":"55"},"sourceKey":"Flow","destinationUnit":{"$ref":"42"},"destinationKey":"assign","guid":"b383c8df-b230-4ed2-b36f-73a1f7c2f910","$type":"Bolt.ControlConnection"},{"sourceUnit":{"$ref":"48"},"sourceKey":"Flow","destinationUnit":{"$ref":"40"},"destinationKey":"assign","guid":"d1651220-f6f1-45ec-84f9-eee398045e80","$type":"Bolt.ControlConnection"},{"sourceUnit":{"$ref":"44"},"sourceKey":"1","destinationUnit":{"$ref":"55"},"destinationKey":"i","guid":"156b8cca-90d3-4a1e-9221-622605d5b1cc","$type":"Bolt.ControlConnection"},{"sourceUnit":{"$ref":"44"},"sourceKey":"0","destinationUnit":{"$ref":"48"},"destinationKey":"i","guid":"71ed5cf9-f557-496b-8353-97db221fea52","$type":"Bolt.ControlConnection"},{"sourceUnit":{"$ref":"35"},"sourceKey":"Flow","destinationUnit":{"$ref":"53"},"destinationKey":"assign","guid":"616b0646-99c4-47c1-b486-3bc20e3f9b43","$type":"Bolt.ControlConnection"},{"sourceUnit":{"$ref":"31"},"sourceKey":"assigned","destinationUnit":{"$ref":"44"},"destinationKey":"enter","guid":"9aaf9a06-81c6-40b1-953e-df6a747be0b3","$type":"Bolt.ControlConnection"},{"sourceUnit":{"$ref":"44"},"sourceKey":"3","destinationUnit":{"$ref":"46"},"destinationKey":"Setup
      Complete","guid":"08f8ee6a-0b68-4627-986b-52f688eada83","$type":"Bolt.ControlConnection"},{"sourceUnit":{"$ref":"40"},"sourceKey":"assigned","destinationUnit":{"$ref":"46"},"destinationKey":"Flow
      1","guid":"5d6ea504-bc6c-4f95-9fe8-600570da867e","$type":"Bolt.ControlConnection"},{"sourceUnit":{"$ref":"42"},"sourceKey":"assigned","destinationUnit":{"$ref":"46"},"destinationKey":"Flow
      2","guid":"0d0b2470-ddbc-4a52-9ffe-4db7d30ad1cd","$type":"Bolt.ControlConnection"},{"sourceUnit":{"$ref":"53"},"sourceKey":"assigned","destinationUnit":{"$ref":"46"},"destinationKey":"Flow
      3","guid":"3db4e8ff-c37f-4dce-a694-16cdd2c05700","$type":"Bolt.ControlConnection"},{"sourceUnit":{"$ref":"44"},"sourceKey":"2","destinationUnit":{"$ref":"35"},"destinationKey":"i","guid":"4fa78ba1-21a3-4400-9f99-50562fea1874","$type":"Bolt.ControlConnection"},{"sourceUnit":{"$ref":"33"},"sourceKey":"value","destinationUnit":{"$ref":"38"},"destinationKey":"fallback","guid":"8f40ff2e-ee06-44e8-8946-741f5a310fa8","$type":"Bolt.ValueConnection"},{"sourceUnit":{"$ref":"27"},"sourceKey":"result","destinationUnit":{"$ref":"40"},"destinationKey":"input","guid":"85bde191-b6d4-4fad-85c6-69c77e9c4aa4","$type":"Bolt.ValueConnection"},{"sourceUnit":{"$ref":"35"},"sourceKey":"Result","destinationUnit":{"$ref":"25"},"destinationKey":"input","guid":"e75baaad-cf99-49c1-8c71-8a546b917b49","$type":"Bolt.ValueConnection"},{"sourceUnit":{"$ref":"33"},"sourceKey":"value","destinationUnit":{"$ref":"25"},"destinationKey":"fallback","guid":"c53bb2dc-40c1-4635-94d9-bedaa6362ef0","$type":"Bolt.ValueConnection"},{"sourceUnit":{"$ref":"25"},"sourceKey":"result","destinationUnit":{"$ref":"53"},"destinationKey":"input","guid":"de1c0170-a21e-4074-8950-0cc47b8b596a","$type":"Bolt.ValueConnection"},{"sourceUnit":{"$ref":"21"},"sourceKey":"Event
      3","destinationUnit":{"$ref":"35"},"destinationKey":"Event","guid":"19bbdb61-8185-429f-b2b7-e13cf98f4cd3","$type":"Bolt.ValueConnection"},{"sourceUnit":{"$ref":"21"},"sourceKey":"Event
      1","destinationUnit":{"$ref":"48"},"destinationKey":"Event","guid":"909716f4-14af-4789-8a38-5754d8dfcdd4","$type":"Bolt.ValueConnection"},{"sourceUnit":{"$ref":"21"},"sourceKey":"Event
      2","destinationUnit":{"$ref":"55"},"destinationKey":"Event","guid":"c5f77c60-fd1a-48ff-a361-8aee1f431bdd","$type":"Bolt.ValueConnection"},{"sourceUnit":{"$ref":"51"},"sourceKey":"value","destinationUnit":{"$ref":"46"},"destinationKey":"Result","guid":"98e5eeec-e934-45fb-9a5c-9a32b13eef39","$type":"Bolt.ValueConnection"},{"sourceUnit":{"$ref":"48"},"sourceKey":"Result","destinationUnit":{"$ref":"46"},"destinationKey":"Result
      1","guid":"a3d61189-de6c-4688-8bdd-dcfc7e5db635","$type":"Bolt.ValueConnection"},{"sourceUnit":{"$ref":"55"},"sourceKey":"Result","destinationUnit":{"$ref":"38"},"destinationKey":"input","guid":"79a2b536-1e7c-4d3c-8796-9f65c38e650a","$type":"Bolt.ValueConnection"},{"sourceUnit":{"$ref":"38"},"sourceKey":"result","destinationUnit":{"$ref":"42"},"destinationKey":"input","guid":"3abe2b89-e8b1-4fd8-9a48-c8033b0163ac","$type":"Bolt.ValueConnection"},{"sourceUnit":{"$ref":"33"},"sourceKey":"value","destinationUnit":{"$ref":"27"},"destinationKey":"fallback","guid":"2057b453-89e3-433a-9c3b-664f290c41eb","$type":"Bolt.ValueConnection"},{"sourceUnit":{"$ref":"29"},"sourceKey":"null","destinationUnit":{"$ref":"31"},"destinationKey":"input","guid":"ee397925-8e7d-46dc-bcac-9d16ef116d77","$type":"Bolt.ValueConnection"},{"sourceUnit":{"$ref":"55"},"sourceKey":"Result","destinationUnit":{"$ref":"46"},"destinationKey":"Result
      2","guid":"abb5b705-cd03-41e1-9d81-c68f52ceffb4","$type":"Bolt.ValueConnection"},{"sourceUnit":{"$ref":"48"},"sourceKey":"Result","destinationUnit":{"$ref":"27"},"destinationKey":"input","guid":"6fd9b503-8ff7-4ec6-b906-df39063bc7e8","$type":"Bolt.ValueConnection"},{"sourceUnit":{"$ref":"35"},"sourceKey":"Result","destinationUnit":{"$ref":"46"},"destinationKey":"Result
      3","guid":"4e8d5f1e-1908-47a1-a8d1-47be73eae970","$type":"Bolt.ValueConnection"}],"$version":"A"}}'
    _objectReferences:
    - {fileID: 11400000, guid: a52e403df98377a448de87e4db824495, type: 2}
    - {fileID: 11400000, guid: a52e403df98377a448de87e4db824495, type: 2}
    - {fileID: 11400000, guid: a52e403df98377a448de87e4db824495, type: 2}
