%YAML 1.1
%TAG !u! tag:unity3d.com,2011:
--- !u!114 &11400000
MonoBehaviour:
  m_ObjectHideFlags: 0
  m_CorrespondingSourceObject: {fileID: 0}
  m_PrefabInstance: {fileID: 0}
  m_PrefabAsset: {fileID: 0}
  m_GameObject: {fileID: 0}
  m_Enabled: 1
  m_EditorHideFlags: 0
  m_Script: {fileID: -1893448595, guid: a040fb66244a7f54289914d98ea4ef7d, type: 3}
  m_Name: FileExistsContentID
  m_EditorClassIdentifier: 
  _data:
    _json: '{"graph":{"variables":{"collection":{"$content":[],"$version":"A"},"$version":"A"},"controlInputDefinitions":[{"key":"i","label":null,"summary":null,"hideLabel":true}],"controlOutputDefinitions":[{"key":"True","label":null,"summary":null,"hideLabel":false},{"key":"False","label":null,"summary":null,"hideLabel":false}],"valueInputDefinitions":[{"hasDefaultValue":false,"defaultValue":null,"_type":"ShivaCode.Network.ContentID","key":"ContentID","label":null,"summary":null,"hideLabel":false}],"valueOutputDefinitions":[{"_type":"System.Boolean","key":"bool","label":null,"summary":"","hideLabel":false}],"title":null,"summary":null,"pan":{"x":366.0,"y":67.0},"zoom":1.0,"elements":[{"specifyFallback":false,"kind":"Application","defaultValues":{"name":{"$content":"DeviceWrapper","$type":"System.String"}},"position":{"x":-331.0,"y":-167.0},"guid":"1f3a8f5d-3da8-4c28-82ac-f498bb634385","$version":"A","$type":"Bolt.GetVariable","$id":"14"},{"chainable":false,"member":{"name":"CheckFileExists","parameterTypes":["System.String","System.Boolean"],"targetType":"ShivaCode.DeviceWrapper.DeviceWrapper","targetTypeName":"ShivaCode.DeviceWrapper.DeviceWrapper","$version":"A"},"defaultValues":{"target":null,"%path":{"$content":"","$type":"System.String"},"%persistent":{"$content":true,"$type":"System.Boolean"}},"position":{"x":-90.0,"y":-159.0},"guid":"80349087-2436-4533-957a-f006c286a22f","$version":"A","$type":"Bolt.InvokeMember","$id":"16"},{"defaultValues":{},"position":{"x":120.0,"y":-177.0},"guid":"0edda207-9fb4-42b4-b4d4-767a883e9fb8","$version":"A","$type":"Bolt.Branch","$id":"19"},{"defaultValues":{},"position":{"x":-483.0,"y":-103.0},"guid":"34594bbe-ed2c-4b41-aa17-dd68740f44da","$version":"A","$type":"Bolt.GraphInput","$id":"21"},{"defaultValues":{},"position":{"x":255.0,"y":-82.0},"guid":"c1073831-8b80-4d69-b3d2-3a2d70be473c","$version":"A","$type":"Bolt.GraphOutput","$id":"23"},{"member":{"name":"SavePath","parameterTypes":null,"targetType":"ShivaCode.Network.ContentID","targetTypeName":"ShivaCode.Network.ContentID","$version":"A"},"defaultValues":{},"position":{"x":-294.0,"y":-29.0},"guid":"afceb12b-ee10-4192-a423-37875fd89ab7","$version":"A","$type":"Bolt.GetMember","$id":"25"},{"sourceUnit":{"$ref":"16"},"sourceKey":"exit","destinationUnit":{"$ref":"19"},"destinationKey":"enter","guid":"eaa13bbb-c745-468b-8867-ea1b897fc378","$type":"Bolt.ControlConnection"},{"sourceUnit":{"$ref":"21"},"sourceKey":"i","destinationUnit":{"$ref":"16"},"destinationKey":"enter","guid":"aa1e2a95-5949-45ea-b2f8-84c53017f795","$type":"Bolt.ControlConnection"},{"sourceUnit":{"$ref":"19"},"sourceKey":"ifTrue","destinationUnit":{"$ref":"23"},"destinationKey":"True","guid":"550223f1-9852-41a2-b973-001d1e8c7a24","$type":"Bolt.ControlConnection"},{"sourceUnit":{"$ref":"19"},"sourceKey":"ifFalse","destinationUnit":{"$ref":"23"},"destinationKey":"False","guid":"3ddaaf10-92a2-4a0b-a944-d2bd50e1b8a6","$type":"Bolt.ControlConnection"},{"sourceUnit":{"$ref":"14"},"sourceKey":"value","destinationUnit":{"$ref":"16"},"destinationKey":"target","guid":"db21a0e6-6708-4a69-af18-ca7d3570e8f9","$type":"Bolt.ValueConnection"},{"sourceUnit":{"$ref":"16"},"sourceKey":"result","destinationUnit":{"$ref":"19"},"destinationKey":"condition","guid":"5586340d-3af6-49bd-b421-7ed772a45a06","$type":"Bolt.ValueConnection"},{"sourceUnit":{"$ref":"16"},"sourceKey":"result","destinationUnit":{"$ref":"23"},"destinationKey":"bool","guid":"407bb9b7-eda2-4a66-92b5-64a13d111c9e","$type":"Bolt.ValueConnection"},{"sourceUnit":{"$ref":"21"},"sourceKey":"ContentID","destinationUnit":{"$ref":"25"},"destinationKey":"target","guid":"2c1139e3-10c2-4a6d-a822-0b7e70c6c767","$type":"Bolt.ValueConnection"},{"sourceUnit":{"$ref":"25"},"sourceKey":"value","destinationUnit":{"$ref":"16"},"destinationKey":"%path","guid":"c6d06e48-6bec-4e1e-9b21-439d582b88cb","$type":"Bolt.ValueConnection"}],"$version":"A"}}'
    _objectReferences: []
