%YAML 1.1
%TAG !u! tag:unity3d.com,2011:
--- !u!114 &11400000
MonoBehaviour:
  m_ObjectHideFlags: 0
  m_CorrespondingSourceObject: {fileID: 0}
  m_PrefabInstance: {fileID: 0}
  m_PrefabAsset: {fileID: 0}
  m_GameObject: {fileID: 0}
  m_Enabled: 1
  m_EditorHideFlags: 0
  m_Script: {fileID: -1893448595, guid: a040fb66244a7f54289914d98ea4ef7d, type: 3}
  m_Name: Set Singleton
  m_EditorClassIdentifier: 
  _data:
    _json: '{"graph":{"variables":{"collection":{"$content":[],"$version":"A"},"$version":"A"},"controlInputDefinitions":[],"controlOutputDefinitions":[],"valueInputDefinitions":[{"hasDefaultValue":true,"defaultValue":null,"_type":"System.String","key":"Variable
      Name","label":null,"summary":null,"hideLabel":false},{"hasDefaultValue":true,"defaultValue":null,"_type":"UnityEngine.GameObject","key":"GameObject","label":null,"summary":null,"hideLabel":false},{"hasDefaultValue":true,"defaultValue":{"$content":true,"$type":"System.Boolean"},"_type":"System.Boolean","key":"Application","label":null,"summary":null,"hideLabel":false}],"valueOutputDefinitions":[],"title":null,"summary":null,"pan":{"x":-77.0,"y":-12.0},"zoom":1.0,"elements":[{"kind":"Application","defaultValues":{"name":{"$content":"ShivaEventManager","$type":"System.String"}},"position":{"x":166.0,"y":-193.0},"guid":"4e985ca1-9165-4279-84ea-8e24d69fc22a","$version":"A","$type":"Bolt.SetVariable","$id":"12"},{"defaultValues":{},"position":{"x":-427.0,"y":91.0},"guid":"8b96ee31-3ce3-4fa8-8974-7ac25d4f2ffa","$version":"A","$type":"Bolt.Self","$id":"14"},{"defaultValues":{},"position":{"x":-519.0,"y":-133.0},"guid":"b9c3af86-152e-413b-ad38-6590c29993b8","$version":"A","$type":"Bolt.GraphInput","$id":"16"},{"defaultValues":{},"position":{"x":-275.0,"y":29.0},"guid":"f46638af-7227-4980-9709-075db2a9c9f7","$version":"A","$type":"Bolt.NullCoalesce","$id":"18"},{"coroutine":false,"defaultValues":{},"position":{"x":-248.0,"y":-208.0},"guid":"8130552c-e087-4614-b277-45e3555f097c","$version":"A","$type":"Bolt.OnEnable","$id":"20"},{"kind":"Scene","defaultValues":{"name":{"$content":"ShivaEventManager","$type":"System.String"}},"position":{"x":144.0,"y":47.0},"guid":"fd28a2c5-54a8-4abb-ac4e-32714d287926","$version":"A","$type":"Bolt.SetVariable","$id":"22"},{"defaultValues":{},"position":{"x":-114.0,"y":-84.0},"guid":"479faa8b-c181-40b0-890b-cc50196626e0","$version":"A","$type":"Bolt.Branch","$id":"24"},{"sourceUnit":{"$ref":"20"},"sourceKey":"trigger","destinationUnit":{"$ref":"24"},"destinationKey":"enter","guid":"32596c34-0505-488a-9c9e-3d20ee2e56b1","$type":"Bolt.ControlConnection"},{"sourceUnit":{"$ref":"24"},"sourceKey":"ifTrue","destinationUnit":{"$ref":"12"},"destinationKey":"assign","guid":"16c99295-5c97-435b-9342-ad69e350758e","$type":"Bolt.ControlConnection"},{"sourceUnit":{"$ref":"24"},"sourceKey":"ifFalse","destinationUnit":{"$ref":"22"},"destinationKey":"assign","guid":"badf1bbe-d8e6-4b12-912c-98948165820c","$type":"Bolt.ControlConnection"},{"sourceUnit":{"$ref":"14"},"sourceKey":"self","destinationUnit":{"$ref":"18"},"destinationKey":"fallback","guid":"1a8e2ae2-a75e-41d3-a8f3-2c383c4252c8","$type":"Bolt.ValueConnection"},{"sourceUnit":{"$ref":"16"},"sourceKey":"Variable
      Name","destinationUnit":{"$ref":"12"},"destinationKey":"name","guid":"36526b7b-4ef2-4ed9-8c91-2ad368ec00fa","$type":"Bolt.ValueConnection"},{"sourceUnit":{"$ref":"18"},"sourceKey":"result","destinationUnit":{"$ref":"22"},"destinationKey":"input","guid":"3380745a-e468-479f-bca0-265f47548576","$type":"Bolt.ValueConnection"},{"sourceUnit":{"$ref":"18"},"sourceKey":"result","destinationUnit":{"$ref":"12"},"destinationKey":"input","guid":"595f5f39-c41a-4368-9daf-a9aa9706f2f7","$type":"Bolt.ValueConnection"},{"sourceUnit":{"$ref":"16"},"sourceKey":"Variable
      Name","destinationUnit":{"$ref":"22"},"destinationKey":"name","guid":"13f27a7a-e16b-42c4-aaff-2c67aad23188","$type":"Bolt.ValueConnection"},{"sourceUnit":{"$ref":"16"},"sourceKey":"GameObject","destinationUnit":{"$ref":"18"},"destinationKey":"input","guid":"22f6ed11-a0ca-4a22-8a76-39205ccd7cb8","$type":"Bolt.ValueConnection"},{"sourceUnit":{"$ref":"16"},"sourceKey":"Application","destinationUnit":{"$ref":"24"},"destinationKey":"condition","guid":"db2d4647-ad14-42ee-8654-1c249430bfe4","$type":"Bolt.ValueConnection"}],"$version":"A"}}'
    _objectReferences: []
