%YAML 1.1
%TAG !u! tag:unity3d.com,2011:
--- !u!114 &11400000
MonoBehaviour:
  m_ObjectHideFlags: 0
  m_CorrespondingSourceObject: {fileID: 0}
  m_PrefabInstance: {fileID: 0}
  m_PrefabAsset: {fileID: 0}
  m_GameObject: {fileID: 0}
  m_Enabled: 1
  m_EditorHideFlags: 0
  m_Script: {fileID: -1893448595, guid: a040fb66244a7f54289914d98ea4ef7d, type: 3}
  m_Name: ObjectSearch
  m_EditorClassIdentifier: 
  _data:
    _json: '{"graph":{"variables":{"collection":{"$content":[{"name":"Check","value":null,"$version":"A"}],"$version":"A"},"$version":"A"},"controlInputDefinitions":[{"key":"i","label":null,"summary":null,"hideLabel":true},{"key":"Result
      In Flow","label":null,"summary":null,"hideLabel":false}],"controlOutputDefinitions":[{"key":"o","label":null,"summary":null,"hideLabel":true},{"key":"Test
      Out Flow","label":null,"summary":null,"hideLabel":false},{"key":"Not Found","label":null,"summary":null,"hideLabel":false}],"valueInputDefinitions":[{"hasDefaultValue":false,"defaultValue":null,"_type":"Ludiq.AotList","key":"List","label":null,"summary":null,"hideLabel":false}],"valueOutputDefinitions":[{"_type":"System.Object","key":"Test
      Out Item","label":null,"summary":null,"hideLabel":false}],"title":null,"summary":null,"pan":{"x":417.5,"y":-89.5},"zoom":1.0,"elements":[{"kind":"Flow","defaultValues":{"name":{"$content":"Item
      Found","$type":"System.String"}},"position":{"x":-551.0,"y":-137.0},"guid":"189cf362-1ca0-474c-928d-68d2fe6a47bc","$version":"A","$type":"Bolt.SetVariable","$id":"17"},{"defaultValues":{},"position":{"x":-672.0,"y":66.0},"guid":"0ea49ffe-a08a-4f1e-8982-76e55fe0c697","$version":"A","$type":"Bolt.CountItems","$id":"19"},{"dictionary":false,"defaultValues":{},"position":{"x":-195.0,"y":-220.0},"guid":"4950a086-ac99-41ad-a1be-830dadedf30f","$version":"A","$type":"Bolt.ForEach","$id":"21"},{"defaultValues":{},"position":{"x":415.0,"y":-199.0},"guid":"26a3a81b-ca9c-435c-a2d5-f74c49a941e7","$version":"A","$type":"Bolt.GraphOutput","$id":"23"},{"type":"System.Boolean","value":{"$content":true,"$type":"System.Boolean"},"defaultValues":{},"position":{"x":-399.0,"y":257.0},"guid":"c295e96f-9793-40e2-8c4a-a9d2b43a2fb6","$version":"A","$type":"Bolt.Literal","$id":"25"},{"defaultValues":{},"position":{"x":225.0,"y":-198.0},"guid":"c915636a-112f-4af6-8441-1c6a97138ed5","$version":"A","$type":"Bolt.Branch","$id":"27"},{"defaultValues":{},"position":{"x":-348.0,"y":-50.0},"guid":"0869138b-292a-485b-915b-a99574f23163","$version":"A","$type":"Bolt.Branch","$id":"29"},{"defaultValues":{},"position":{"x":-756.0,"y":-96.0},"guid":"b0046984-6b70-4c07-8a96-912638b9819c","$version":"A","$type":"Bolt.GraphInput","$id":"31"},{"defaultValues":{},"position":{"x":279.0,"y":-328.0},"guid":"da2c3925-96d0-4f2d-b160-ae4a37111dac","$version":"A","$type":"Bolt.Branch","$id":"33"},{"specifyFallback":false,"kind":"Flow","defaultValues":{"name":{"$content":"Item
      Found","$type":"System.String"}},"position":{"x":-187.0,"y":-324.0},"guid":"b0682676-5adf-4833-ac34-bd4468e0d425","$version":"A","$type":"Bolt.GetVariable","$id":"35"},{"kind":"Flow","defaultValues":{"name":{"$content":"Item
      Found","$type":"System.String"}},"position":{"x":-164.0,"y":104.0},"guid":"2a76792a-e3e3-4ac0-a33b-197c8c9a350f","$version":"A","$type":"Bolt.SetVariable","$id":"37"},{"numeric":true,"defaultValues":{"b":{"$content":0.0,"$type":"System.Single"}},"position":{"x":-480.0,"y":101.0},"guid":"30b2c44f-2b87-4121-8098-8dadecdb631a","$version":"A","$type":"Bolt.Greater","$id":"39"},{"type":"System.Boolean","value":{"$content":false,"$type":"System.Boolean"},"defaultValues":{},"position":{"x":-662.0,"y":-232.0},"guid":"2ad0c24f-003f-4bab-9629-16ad9e2c91a0","$version":"A","$type":"Bolt.Literal","$id":"41"},{"resetOnExit":false,"inputCount":2,"defaultValues":{},"position":{"x":98.0,"y":-403.0},"guid":"1cdd07fe-fe1c-4bad-9ab9-8dbb68165e8d","$version":"A","$type":"Bolt.WaitForFlow","$id":"43"},{"chainable":false,"member":{"name":"Log","parameterTypes":["System.Object"],"targetType":"UnityEngine.Debug","targetTypeName":"UnityEngine.Debug","$version":"A"},"defaultValues":{},"position":{"x":29.0,"y":-190.0},"guid":"02aa7b98-09f7-44bc-9dee-edc32a37e996","$version":"A","$type":"Bolt.InvokeMember","$id":"45"},{"sourceUnit":{"$ref":"29"},"sourceKey":"ifTrue","destinationUnit":{"$ref":"21"},"destinationKey":"enter","guid":"73e05886-b879-4f79-98ff-c73edfbc9d83","$type":"Bolt.ControlConnection"},{"sourceUnit":{"$ref":"17"},"sourceKey":"assigned","destinationUnit":{"$ref":"29"},"destinationKey":"enter","guid":"df441362-a8eb-4232-823d-b51c5736aac9","$type":"Bolt.ControlConnection"},{"sourceUnit":{"$ref":"27"},"sourceKey":"ifFalse","destinationUnit":{"$ref":"23"},"destinationKey":"Test
      Out Flow","guid":"324b251b-eea2-4f42-bfc2-072d9559491f","$type":"Bolt.ControlConnection"},{"sourceUnit":{"$ref":"31"},"sourceKey":"Result
      In Flow","destinationUnit":{"$ref":"37"},"destinationKey":"assign","guid":"176666fc-281f-4f62-89e1-33273b82b7f7","$type":"Bolt.ControlConnection"},{"sourceUnit":{"$ref":"31"},"sourceKey":"i","destinationUnit":{"$ref":"17"},"destinationKey":"assign","guid":"2b12c093-0a6f-4058-b33d-a2d6273969fb","$type":"Bolt.ControlConnection"},{"sourceUnit":{"$ref":"33"},"sourceKey":"ifTrue","destinationUnit":{"$ref":"23"},"destinationKey":"o","guid":"aa46196a-802b-42cb-86bf-f8f75ee90c5b","$type":"Bolt.ControlConnection"},{"sourceUnit":{"$ref":"21"},"sourceKey":"exit","destinationUnit":{"$ref":"43"},"destinationKey":"0","guid":"5af27567-8f44-4021-9bf5-6f0f8acfda9a","$type":"Bolt.ControlConnection"},{"sourceUnit":{"$ref":"37"},"sourceKey":"assigned","destinationUnit":{"$ref":"43"},"destinationKey":"1","guid":"6268c414-e76f-4b47-8a5d-58206998b07a","$type":"Bolt.ControlConnection"},{"sourceUnit":{"$ref":"29"},"sourceKey":"ifFalse","destinationUnit":{"$ref":"23"},"destinationKey":"Not
      Found","guid":"4e51cc47-d43d-4ee7-a08b-8e9a34a524f2","$type":"Bolt.ControlConnection"},{"sourceUnit":{"$ref":"33"},"sourceKey":"ifFalse","destinationUnit":{"$ref":"23"},"destinationKey":"Not
      Found","guid":"32b94a6d-fdf2-49dd-86e8-6bf6258b4177","$type":"Bolt.ControlConnection"},{"sourceUnit":{"$ref":"43"},"sourceKey":"exit","destinationUnit":{"$ref":"33"},"destinationKey":"enter","guid":"bd38651e-52e8-4983-a5c8-13b6116ddffb","$type":"Bolt.ControlConnection"},{"sourceUnit":{"$ref":"21"},"sourceKey":"body","destinationUnit":{"$ref":"45"},"destinationKey":"enter","guid":"9802140c-56ee-4f7c-b551-7d00c49d547a","$type":"Bolt.ControlConnection"},{"sourceUnit":{"$ref":"45"},"sourceKey":"exit","destinationUnit":{"$ref":"27"},"destinationKey":"enter","guid":"4b17ec00-1dc5-41bb-9074-24de820b6386","$type":"Bolt.ControlConnection"},{"sourceUnit":{"$ref":"21"},"sourceKey":"currentItem","destinationUnit":{"$ref":"23"},"destinationKey":"Test
      Out Item","guid":"2db01cc9-a39a-442f-bfd7-3e881560f337","$type":"Bolt.ValueConnection"},{"sourceUnit":{"$ref":"35"},"sourceKey":"value","destinationUnit":{"$ref":"33"},"destinationKey":"condition","guid":"507b6838-ad87-4a26-a539-bc3940a64ede","$type":"Bolt.ValueConnection"},{"sourceUnit":{"$ref":"25"},"sourceKey":"output","destinationUnit":{"$ref":"37"},"destinationKey":"input","guid":"3764c2d8-25c7-46b6-9bf3-dbdf42995db1","$type":"Bolt.ValueConnection"},{"sourceUnit":{"$ref":"41"},"sourceKey":"output","destinationUnit":{"$ref":"17"},"destinationKey":"input","guid":"2beeec5d-7c7f-4038-886a-a95cfbe25205","$type":"Bolt.ValueConnection"},{"sourceUnit":{"$ref":"31"},"sourceKey":"List","destinationUnit":{"$ref":"21"},"destinationKey":"collection","guid":"360479aa-4657-4954-8bbc-b897d0375222","$type":"Bolt.ValueConnection"},{"sourceUnit":{"$ref":"35"},"sourceKey":"value","destinationUnit":{"$ref":"27"},"destinationKey":"condition","guid":"50cc3ed9-104e-4400-bb0f-8f756cf57c9e","$type":"Bolt.ValueConnection"},{"sourceUnit":{"$ref":"31"},"sourceKey":"List","destinationUnit":{"$ref":"19"},"destinationKey":"collection","guid":"3a822803-2c13-4da4-8422-c1e85b247803","$type":"Bolt.ValueConnection"},{"sourceUnit":{"$ref":"19"},"sourceKey":"count","destinationUnit":{"$ref":"39"},"destinationKey":"a","guid":"d6497c24-4be1-4f66-8ee9-7c3451e359fb","$type":"Bolt.ValueConnection"},{"sourceUnit":{"$ref":"39"},"sourceKey":"comparison","destinationUnit":{"$ref":"29"},"destinationKey":"condition","guid":"6371704e-1aee-4c82-99ae-8959011d4cd5","$type":"Bolt.ValueConnection"},{"sourceUnit":{"$ref":"21"},"sourceKey":"currentItem","destinationUnit":{"$ref":"45"},"destinationKey":"%message","guid":"693e83e2-5f82-4d29-a7f5-935a8c41820e","$type":"Bolt.ValueConnection"}],"$version":"A"}}'
    _objectReferences: []
