%YAML 1.1
%TAG !u! tag:unity3d.com,2011:
--- !u!114 &11400000
MonoBehaviour:
  m_ObjectHideFlags: 0
  m_CorrespondingSourceObject: {fileID: 0}
  m_PrefabInstance: {fileID: 0}
  m_PrefabAsset: {fileID: 0}
  m_GameObject: {fileID: 0}
  m_Enabled: 1
  m_EditorHideFlags: 0
  m_Script: {fileID: -1893448595, guid: a040fb66244a7f54289914d98ea4ef7d, type: 3}
  m_Name: PrismData Search
  m_EditorClassIdentifier: 
  _data:
    _json: '{"graph":{"variables":{"collection":{"$content":[{"name":"Check","value":null,"$version":"A"}],"$version":"A"},"$version":"A"},"controlInputDefinitions":[{"key":"i","label":null,"summary":null,"hideLabel":true}],"controlOutputDefinitions":[{"key":"o","label":null,"summary":null,"hideLabel":true},{"key":"Not
      Found","label":null,"summary":null,"hideLabel":false}],"valueInputDefinitions":[{"hasDefaultValue":false,"defaultValue":null,"_type":"Ludiq.AotList","key":"List","label":null,"summary":null,"hideLabel":false}],"valueOutputDefinitions":[{"_type":"PrismData","key":"PrismData","label":null,"summary":null,"hideLabel":false}],"title":null,"summary":null,"pan":{"x":189.0,"y":192.0},"zoom":1.0,"elements":[{"defaultValues":{},"position":{"x":-423.0,"y":34.0},"guid":"2465ddc5-4323-4e61-a6e7-5a2e00f9cefb","$version":"A","$type":"Bolt.GraphInput","$id":"15"},{"defaultValues":{},"position":{"x":293.0,"y":103.0},"guid":"ed4cd872-d455-4d61-a6e0-78e98116cb6a","$version":"A","$type":"Bolt.GraphOutput","$id":"17"},{"defaultValues":{},"position":{"x":196.0,"y":-26.0},"guid":"307329de-a70e-4fc9-be91-5f06f6a0adc2","$version":"A","$type":"Bolt.Branch","$id":"19"},{"nest":{"source":"Macro","macro":0,"embed":null},"defaultValues":{},"position":{"x":-255.0,"y":9.0},"guid":"4c08c7b6-8e13-4e58-9410-2eb1080f4497","$version":"A","$type":"Bolt.SuperUnit","$id":"21"},{"chainable":false,"member":{"name":"IsPrismData","parameterTypes":["System.Object"],"targetType":"ShivaCode.Bolt.AugleTypeCheck","targetTypeName":"ShivaCode.Bolt.AugleTypeCheck","$version":"A"},"defaultValues":{},"position":{"x":23.0,"y":-3.0},"guid":"a5c2ff94-f663-4e4a-a20d-3145cad3a3ce","$version":"A","$type":"Bolt.InvokeMember","$id":"24"},{"sourceUnit":{"$ref":"24"},"sourceKey":"exit","destinationUnit":{"$ref":"19"},"destinationKey":"enter","guid":"a51cd03c-bdc6-4dcb-8be5-0f54441d832d","$type":"Bolt.ControlConnection"},{"sourceUnit":{"$ref":"15"},"sourceKey":"i","destinationUnit":{"$ref":"21"},"destinationKey":"i","guid":"15e6d96d-d715-4e6e-a9a5-74c1fd3ff674","$type":"Bolt.ControlConnection"},{"sourceUnit":{"$ref":"19"},"sourceKey":"ifTrue","destinationUnit":{"$ref":"17"},"destinationKey":"o","guid":"d0d7254e-b1c1-4e45-8830-7558c02e82f9","$type":"Bolt.ControlConnection"},{"sourceUnit":{"$ref":"21"},"sourceKey":"Test
      Out Flow","destinationUnit":{"$ref":"24"},"destinationKey":"enter","guid":"932f876a-174d-4485-a203-6ddfd005b849","$type":"Bolt.ControlConnection"},{"sourceUnit":{"$ref":"21"},"sourceKey":"Not
      Found","destinationUnit":{"$ref":"17"},"destinationKey":"Not Found","guid":"ebde54dd-618d-478a-9597-6b33d6307a1b","$type":"Bolt.ControlConnection"},{"sourceUnit":{"$ref":"21"},"sourceKey":"Test
      Out Item","destinationUnit":{"$ref":"24"},"destinationKey":"%obj","guid":"b638881d-78bb-417c-8791-9ec89d8212c9","$type":"Bolt.ValueConnection"},{"sourceUnit":{"$ref":"24"},"sourceKey":"result","destinationUnit":{"$ref":"19"},"destinationKey":"condition","guid":"8346ef09-b326-4506-817a-63cd01d99e26","$type":"Bolt.ValueConnection"},{"sourceUnit":{"$ref":"15"},"sourceKey":"List","destinationUnit":{"$ref":"21"},"destinationKey":"List","guid":"ca4088f8-ba4b-40c8-b84c-02011e1afb77","$type":"Bolt.ValueConnection"},{"sourceUnit":{"$ref":"21"},"sourceKey":"Test
      Out Item","destinationUnit":{"$ref":"17"},"destinationKey":"PrismData","guid":"8ed5b49c-6222-470f-bf52-e75efffd81bc","$type":"Bolt.ValueConnection"}],"$version":"A"}}'
    _objectReferences:
    - {fileID: 11400000, guid: 5e8c2af8308623a49b15d77e9d12e5a3, type: 2}
