%YAML 1.1
%TAG !u! tag:unity3d.com,2011:
--- !u!114 &11400000
MonoBehaviour:
  m_ObjectHideFlags: 0
  m_CorrespondingSourceObject: {fileID: 0}
  m_PrefabInstance: {fileID: 0}
  m_PrefabAsset: {fileID: 0}
  m_GameObject: {fileID: 0}
  m_Enabled: 1
  m_EditorHideFlags: 0
  m_Script: {fileID: 11500000, guid: 6b6934d2ea17296449b55ff8086df8bc, type: 3}
  m_Name: LoginWedge
  m_EditorClassIdentifier: 
  serializationData:
    SerializedFormat: 2
    SerializedBytes: 
    ReferencedUnityObjects: []
    SerializedBytesString: 
    Prefab: {fileID: 0}
    PrefabModificationsReferencedUnityObjects: []
    PrefabModifications: []
    SerializationNodes:
    - Name: errorHandler
      Entry: 6
      Data: 
  _reminders: 
  startListeners: {fileID: 11400000, guid: cf16418b12e55a644aa4c2474c2048fb, type: 2}
  successListeners: {fileID: 11400000, guid: 53defdc9cf741c74e9eada5d90c0cf56, type: 2}
  failureListeners: {fileID: 0}
