%YAML 1.1
%TAG !u! tag:unity3d.com,2011:
--- !u!114 &11400000
MonoBehaviour:
  m_ObjectHideFlags: 0
  m_CorrespondingSourceObject: {fileID: 0}
  m_PrefabInstance: {fileID: 0}
  m_PrefabAsset: {fileID: 0}
  m_GameObject: {fileID: 0}
  m_Enabled: 1
  m_EditorHideFlags: 0
  m_Script: {fileID: 11500000, guid: 307f2418aabd4b439dd59ae08d6955c3, type: 3}
  m_Name: ConnectedToPlayfab
  m_EditorClassIdentifier: 
  serializationData:
    SerializedFormat: 2
    SerializedBytes: 
    ReferencedUnityObjects:
    - {fileID: 11400000, guid: 2029b2e5180b2554ca4f65abc805b37f, type: 2}
    SerializedBytesString: 
    Prefab: {fileID: 0}
    PrefabModificationsReferencedUnityObjects: []
    PrefabModifications: []
    SerializationNodes:
    - Name: _editorCallbacks
      Entry: 7
      Data: 0|System.Collections.Generic.List`1[[System.Action`1[[System.String,
        mscorlib]], mscorlib]], mscorlib
    - Name: 
      Entry: 12
      Data: 0
    - Name: 
      Entry: 13
      Data: 
    - Name: 
      Entry: 8
      Data: 
    - Name: _eventListeners
      Entry: 7
      Data: 1|ShivaCode.Events.ListenerChain`1[[System.String, mscorlib]], ShivaCode
    - Name: _eventListeners
      Entry: 7
      Data: 2|System.Collections.Generic.List`1[[ShivaCode.Events.IGameEventListener`1[[System.String,
        mscorlib]], ShivaCode]], mscorlib
    - Name: 
      Entry: 12
      Data: 1
    - Name: 
      Entry: 10
      Data: 0
    - Name: 
      Entry: 13
      Data: 
    - Name: 
      Entry: 8
      Data: 
    - Name: _eventCallbacks
      Entry: 7
      Data: 3|System.Collections.Generic.List`1[[System.Action`1[[System.String,
        mscorlib]], mscorlib]], mscorlib
    - Name: 
      Entry: 12
      Data: 0
    - Name: 
      Entry: 13
      Data: 
    - Name: 
      Entry: 8
      Data: 
    - Name: 
      Entry: 8
      Data: 
    - Name: valueChanged
      Entry: 7
      Data: 4|System.Collections.Generic.List`1[[ShivaCode.Events.BaseGameEventListener`3[[System.String,
        mscorlib],[ShivaCode.Events.BaseGameEvent`1[[System.String, mscorlib]], ShivaCode],[UnityEngine.Events.UnityEvent`1[[System.String,
        mscorlib]], UnityEngine.CoreModule]], ShivaCode]], mscorlib
    - Name: 
      Entry: 12
      Data: 0
    - Name: 
      Entry: 13
      Data: 
    - Name: 
      Entry: 8
      Data: 
  _reminders: 
  ShivaLogLevel: 3
